{"success":true,"message":"success","data":{"pageCount":9,"page":1,"totalCount":169,"overviews":[{"friendCount":0,"talkerCount":0,"messageCount":6,"redPacketCount":0,"linkCount":0,"pictureCount":0,"wechatId":"wxid_i7i13tbp2s5321","friendId":"wxid_15j43ijc8zyn22","friendAlias":"heartfly_lee","friendName":"心飞翔的背后","friendRemark":"李新飞","friendHeadImageUrl":"http://wx.qlogo.cn/mmhead/ver_1/WEDm5LW3MqnTQOymzGL0ibicU9AtmYd4pNoIXtCdJ0xs5E0aX12Eibfe3WnRPunQRYRrX5jicfAwZqUdxF9Pyy9L8xPz90zk3CbCulLibfLFunTw/132"},{"friendCount":0,"talkerCount":0,"messageCount":3,"redPacketCount":0,"linkCount":0,"pictureCount":0,"wechatId":"wxid_i7i13tbp2s5321","friendId":"wxid_es0ptszx5jie21","friendAlias":"wx_qsq","friendName":"瞿","friendRemark":"瞿 某个投资人","friendHeadImageUrl":"http://wx.qlogo.cn/mmhead/ver_1/KibvYyKCLzEmsMcFNwR0dd3fRd3VJm15RulczjVDR6Tb0fOUSMJQOSVFHKoI71ASLg2CqfWzzkHW896nOt4Hctvs5HcfgLrY7LP0OnMIxZNQ/96"},{"friendCount":0,"talkerCount":0,"messageCount":3,"redPacketCount":0,"linkCount":0,"pictureCount":0,"wechatId":"wxid_i7i13tbp2s5321","friendId":"wxid_vfbdp81mw9cp21","friendAlias":"","friendName":"假，虫","friendRemark":"廉云龙","friendHeadImageUrl":"http://wx.qlogo.cn/mmhead/ver_1/8BanR4CVrcNUDDl3RmGibOVbIIMxKttJl6Hm5tiav9yIuVnA5iaHIBI5oX2KXqgIutFhqpASvgB4LE485kibMy7tRqK4TicrMt8dCDWR4kiaoxHjg/132"},{"friendCount":0,"talkerCount":0,"messageCount":3,"redPacketCount":0,"linkCount":0,"pictureCount":0,"wechatId":"wxid_i7i13tbp2s5321","friendId":"wxid_23hq24syc9x812","friendAlias":"RSC1118","friendName":"任种种","friendRemark":"任思纯","friendHeadImageUrl":"http://wx.qlogo.cn/mmhead/ver_1/S0U4tnRrnlIbCAT5E9NdRQZBFIWNfyknLyDnDPzSNanco363BZPicxJ38eyS8sGu3iarVfpPZgk6QkqxpL6q6WpQ/132"},{"friendCount":0,"talkerCount":0,"messageCount":2,"redPacketCount":0,"linkCount":0,"pictureCount":0,"wechatId":"wxid_i7i13tbp2s5321","friendId":"wangjie1673","friendAlias":"","friendName":"佳佳","friendRemark":"佳佳","friendHeadImageUrl":"http://wx.qlogo.cn/mmhead/ver_1/yhCBf57pckGud4ruFqcxgD2K51YQXKYdX4iawyGcY2DGZicjFxnpMJ1baFhIybkGtTwzgAffw8VnibibfVoq629LbA/96"},{"friendCount":0,"talkerCount":0,"messageCount":1,"redPacketCount":0,"linkCount":0,"pictureCount":0,"wechatId":"wxid_i7i13tbp2s5321","friendId":"wxid_2ckoe6p0sflc22","friendAlias":"","friendName":"石榴奶奶","friendRemark":"石榴奶奶","friendHeadImageUrl":""},{"friendCount":0,"talkerCount":0,"messageCount":0,"redPacketCount":0,"linkCount":0,"pictureCount":0,"wechatId":"wxid_i7i13tbp2s5321","friendId":"shihujiang","friendAlias":"hujiang789123","friendName":"tiger","friendRemark":"姜士虎","friendHeadImageUrl":"http://wx.qlogo.cn/mmhead/ver_1/SgjZlB9j2oBv2bLNicDtrvcYFLQw3uvamInWU61dxTJsq1tzIFniaGGE2YLh2picPticxJbJ7yR5ySBLwDHZticLMAA/96"},{"friendCount":0,"talkerCount":0,"messageCount":0,"redPacketCount":0,"linkCount":0,"pictureCount":0,"wechatId":"wxid_i7i13tbp2s5321","friendId":"wxid_ap9chz0bv88o21","friendAlias":"echooo1992","friendName":"","friendRemark":"王顺奇","friendHeadImageUrl":"http://wx.qlogo.cn/mmhead/ver_1/NjzXn9MCES6Qt9wNibngv08XUzgl0OpfibiaNYDpWaLVQApnl1wsaG8fXFSGgnHOMGc5LqablYFeWkiaECUyQEk650NkAw1I0Qua8n9DqCJiaI8g/96"},{"friendCount":0,"talkerCount":0,"messageCount":0,"redPacketCount":0,"linkCount":0,"pictureCount":0,"wechatId":"wxid_i7i13tbp2s5321","friendId":"wxid_v4ic4jt15ef322","friendAlias":"","friendName":"呐妞，叫哥","friendRemark":"刘伟民"},{"friendCount":0,"talkerCount":0,"messageCount":0,"redPacketCount":0,"linkCount":0,"pictureCount":0,"wechatId":"wxid_i7i13tbp2s5321","friendId":"wangwanyang002","friendAlias":"tianyiwwy121","friendName":"万洋","friendRemark":"万阳","friendHeadImageUrl":"http://wx.qlogo.cn/mmhead/ver_1/QjRhl39jnkxkncWmoDGbZ7w1SaMicnhpM9GyHbdbicIWg8QzrVymRfvic8e6ezfO54iaqiaeLnkISPCcIeKLib3CH35A/96"},{"friendCount":0,"talkerCount":0,"messageCount":0,"redPacketCount":0,"linkCount":0,"pictureCount":0,"wechatId":"wxid_i7i13tbp2s5321","friendId":"wxid_e8xzme9v8ssx22","friendAlias":"","friendName":"带着幸福流浪","friendRemark":"张中涛 云客","friendHeadImageUrl":"http://wx.qlogo.cn/mmhead/ver_1/XaLBcNAM0elD4CFDaViaicDhtP27AXg8D0nFMf9L7ALNkwhElZT3RpBf9TVDM5OnAGFm23Hegu0ibIHVBsfOljOCA/132"},{"friendCount":0,"talkerCount":0,"messageCount":0,"redPacketCount":0,"linkCount":0,"pictureCount":0,"wechatId":"wxid_i7i13tbp2s5321","friendId":"wxid_y67bzjeh2r8k41","friendAlias":"aiyaowei90","friendName":"哎吆伟","friendRemark":"刘伟","friendHeadImageUrl":"http://wx.qlogo.cn/mmhead/ver_1/H6MW4iabiblpsibEM1uePo5iaDs5PRVibOXWEvv2E68U2qjs8tK5XbWQI6ibsFBsqB8XugCesjYRTG0EHVhR6lP8LLHEjjmZMr4kZEwmScIqWJ23U/132"},{"friendCount":0,"talkerCount":0,"messageCount":0,"redPacketCount":0,"linkCount":0,"pictureCount":0,"wechatId":"wxid_i7i13tbp2s5321","friendId":"wxid_fb12glyvrftx21","friendAlias":"","friendName":"曙光。","friendRemark":"刘西波","friendHeadImageUrl":"http://wx.qlogo.cn/mmhead/ver_1/6J1FNozxcvCNXh4GhypfQErwLKwSncQtJZ0rcCEAfvQqZG5coPorPJzeXhL4DUz7083bDyz64591jqDqRfgcqCv7FbeB140x1sh3OSeA2f0/96"},{"friendCount":0,"talkerCount":0,"messageCount":0,"redPacketCount":0,"linkCount":0,"pictureCount":0,"wechatId":"wxid_i7i13tbp2s5321","friendId":"xingxiaoxia0203","friendAlias":"","friendName":"感恩的心","friendRemark":"别克卖车","friendHeadImageUrl":"http://wx.qlogo.cn/mmhead/ver_1/wGK2SWQfiaVf0NTTfGtww3bnQN4YCfThZbPic9iaH2X8OpB3F4ic2jPzJRKibXMNktKm07aYxiaQCaNDI9lhMEaBwhuPJllhDpNcqUMgFC2tCqwp8/96"},{"friendCount":0,"talkerCount":0,"messageCount":0,"redPacketCount":0,"linkCount":0,"pictureCount":0,"wechatId":"wxid_i7i13tbp2s5321","friendId":"LY1981021386","friendAlias":"","friendName":"李笃超","friendRemark":"李勇","friendHeadImageUrl":"http://wx.qlogo.cn/mmhead/ver_1/c6s3faUl6wWFWZiciblVLPkKETSPISHXFtRlNDpFBIeSg0SwoicTJV2gQC3S73PzIPRT3NVpicDw0NsnFibS9QIo2Mw/96"},{"friendCount":0,"talkerCount":0,"messageCount":0,"redPacketCount":0,"linkCount":0,"pictureCount":0,"wechatId":"wxid_i7i13tbp2s5321","friendId":"wxid_2rhsvakkva5n22","friendAlias":"steve137163","friendName":"余彬","friendRemark":"","friendHeadImageUrl":"http://wx.qlogo.cn/mmhead/ver_1/PNeah07GSKLGte88fjmemfp4d8SJBmHQ3UlejKYU77saPicw6bBTMkYibEAYjYvE0qXudWA6uxoLgd13pFekDW8n0etWtoeib5CcSwwatgXRMA/132"},{"friendCount":0,"talkerCount":0,"messageCount":0,"redPacketCount":0,"linkCount":0,"pictureCount":0,"wechatId":"wxid_i7i13tbp2s5321","friendId":"wxid_hg5tbqncptpg11","friendAlias":"wstwinner","friendName":"Keeper","friendRemark":"王双涛","friendHeadImageUrl":"http://wx.qlogo.cn/mmhead/ver_1/7uBmicicUO8oiaicfa7uhJHf594LibEggfeUHcS6dXxJd4JCWmTqSk3tc0jok737wZGsqPTIlfKrY5lZSOeJsovAWicwqHx4bl741QWnas2MpqDbY/96"},{"friendCount":0,"talkerCount":0,"messageCount":0,"redPacketCount":0,"linkCount":0,"pictureCount":0,"wechatId":"wxid_i7i13tbp2s5321","friendId":"zhenhui0414","friendAlias":"","friendName":"攻城狮-moilion","friendRemark":"","friendHeadImageUrl":"http://wx.qlogo.cn/mmhead/ver_1/BoMZGDElFoNiaqkJrHhvV8ydzdTUpjd2oCtFN5KCAD6tUibw9oL0zhRCMc4wN21Prez72MSox0VXOejeJNW0mbmAgUUiakcwtA1A9qRXGY4GXo/96"},{"friendCount":0,"talkerCount":0,"messageCount":0,"redPacketCount":0,"linkCount":0,"pictureCount":0,"wechatId":"wxid_i7i13tbp2s5321","friendId":"dsasad","friendAlias":"k13717821451","friendName":"李万锋","friendRemark":"","friendHeadImageUrl":"http://wx.qlogo.cn/mmhead/ver_1/xBgMeNIuJvEqAcjxcMIT9fiaY3b14ibLvklo8bj59ibqhRu0yA4mRAa0Kb0f9uN0MWE2v4kI6GHHHnjNQvOVjneLEibEh9aBtBZGgL46Nk9l4xE/96"},{"friendCount":0,"talkerCount":0,"messageCount":0,"redPacketCount":0,"linkCount":0,"pictureCount":0,"wechatId":"wxid_i7i13tbp2s5321","friendId":"wxid_4njffzsw99o421","friendAlias":"qq467238764","friendName":"爱是一杯苦酒","friendRemark":"王振小号","friendHeadImageUrl":"http://wx.qlogo.cn/mmhead/ver_1/hPbgGp3049ZS81LQEZO46lagYM2KxfTTtGVZxrrE16F6icVBO9Nwv6VDJ5aNlO7cD6SxOtMUJ8oUjOAAu7lYdujHsG3qlYhLiawC9nlIq2LkA/96"}]}}